%YAML 1.1
%TAG !u! tag:unity3d.com,2011:
--- !u!114 &11400000
MonoBehaviour:
  m_ObjectHideFlags: 0
  m_CorrespondingSourceObject: {fileID: 0}
  m_PrefabInstance: {fileID: 0}
  m_PrefabAsset: {fileID: 0}
  m_GameObject: {fileID: 0}
  m_Enabled: 1
  m_EditorHideFlags: 0
  m_Script: {fileID: 11500000, guid: f6b6a652e618afc409e23cf62f435d01, type: 3}
  m_Name: LevelsConfiguration
  m_EditorClassIdentifier: 
  levelParts: []
  randomLevelParts:
  - {fileID: 1648403184234388598, guid: a51de9ba6fe9d8b4eb4c1666f35381dd, type: 3}
  - {fileID: 4094360291276474671, guid: c0bd84056f708e44e95852cc3208ba95, type: 3}
  - {fileID: 3373130665466536103, guid: 655f972a4d624da4b801d85ec21205a1, type: 3}
